{
	"info": {
		"_postman_id": "83955be4-8521-49e9-9223-3bd49bfe0307",
		"name": "Plan Poker Service",
		"schema": "https://schema.getpostman.com/json/collection/v2.1.0/collection.json",
		"_exporter_id": "3417675"
	},
	"item": [
		{
			"name": "Auth",
			"item": [
				{
					"name": "Login",
					"event": [
						{
							"listen": "test",
							"script": {
								"exec": [
									"pm.test(\"Successful retrieve token\", function () {",
									"    const responseCode = pm.response.code;",
									"    pm.expect(responseCode).to.eql(200);",
									"",
									"    const responseJson = pm.response.json();",
									"    pm.expect(responseJson).to.have.property('token');",
									"",
									"    const token = responseJson.token;",
									"    pm.expect(token).not.equal(\"\");",
									"",
									"    pm.collectionVariables.set(\"auth_token\", token);",
									"});"
								],
								"type": "text/javascript"
							}
						}
					],
					"request": {
						"method": "POST",
						"header": [],
						"body": {
							"mode": "raw",
							"raw": "{\n    \"username\": \"mlgmag\",\n    \"password\": \"hello\"\n}\n",
							"options": {
								"raw": {
									"language": "json"
								}
							}
						},
						"url": {
							"raw": "{{servie_base_url}}/api/v1/auth/login",
							"host": [
								"{{servie_base_url}}"
							],
							"path": [
								"api",
								"v1",
								"auth",
								"login"
							]
						}
					},
					"response": []
				},
				{
					"name": "Register",
					"request": {
						"method": "POST",
						"header": [],
						"body": {
							"mode": "raw",
							"raw": "{\n    \"username\": \"mlgmag\",\n    \"password\": \"hello\",\n    \"firstName\": \"Mahomed\",\n    \"lastName\": \"Akhmedov\"\n}",
							"options": {
								"raw": {
									"language": "json"
								}
							}
						},
						"url": {
							"raw": "{{servie_base_url}}/api/v1/auth/register",
							"host": [
								"{{servie_base_url}}"
							],
							"path": [
								"api",
								"v1",
								"auth",
								"register"
							]
						}
					},
					"response": []
				}
			]
		},
		{
			"name": "User",
			"item": [
				{
					"name": "Create user",
					"request": {
						"method": "POST",
						"header": [
							{
								"key": "Authorization",
								"value": "{{auth_token}}",
								"type": "text"
							}
						],
						"body": {
							"mode": "raw",
							"raw": "{\n    \"username\": \"yaroslavB\",\n    \"password\": \"hello1234\",\n    \"firstName\": \"Yaroslav\",\n    \"lastName\": \"Bugachuky\"\n}",
							"options": {
								"raw": {
									"language": "json"
								}
							}
						},
						"url": {
							"raw": "{{servie_base_url}}/api/v1/users",
							"host": [
								"{{servie_base_url}}"
							],
							"path": [
								"api",
								"v1",
								"users"
							]
						}
					},
					"response": []
				},
				{
					"name": "Get users",
					"protocolProfileBehavior": {
						"disableBodyPruning": true
					},
					"request": {
						"method": "GET",
						"header": [
							{
								"key": "Authorization",
								"value": "{{auth_token}}",
								"type": "text"
							}
						],
						"body": {
							"mode": "raw",
							"raw": "{\n    \"id\": 1,\n    \"uuid\": \"62d9be35-b39c-4f86-8e81-d73b84894c76\",\n    \"name\": \"Maga1\"\n}",
							"options": {
								"raw": {
									"language": "json"
								}
							}
						},
						"url": {
							"raw": "{{servie_base_url}}/api/v1/users?displayId=1fcc8ae1-a4b6-4964-b577-915d780bcc80",
							"host": [
								"{{servie_base_url}}"
							],
							"path": [
								"api",
								"v1",
								"users"
							],
							"query": [
								{
									"key": "displayId",
									"value": "1fcc8ae1-a4b6-4964-b577-915d780bcc80"
								},
								{
									"key": "username",
									"value": "mlgmag",
									"disabled": true
								}
							]
						}
					},
					"response": []
				}
			]
		},
		{
			"name": "Session",
			"item": [
				{
					"name": "Create Session",
					"request": {
						"method": "POST",
						"header": [
							{
								"key": "Authorization",
								"value": "{{auth_token}}",
								"type": "text"
							}
						],
						"body": {
							"mode": "raw",
							"raw": "{\n    \"createdByDisplayId\": \"1fcc8ae1-a4b6-4964-b577-915d780bcc80\",\n    \"title\": \"Session 4\",\n    \"description\": \"Initial session of the day\"\n}",
							"options": {
								"raw": {
									"language": "json"
								}
							}
						},
						"url": {
							"raw": "{{servie_base_url}}/api/v1/poker_sessions",
							"host": [
								"{{servie_base_url}}"
							],
							"path": [
								"api",
								"v1",
								"poker_sessions"
							]
						}
					},
					"response": []
				},
				{
					"name": "Get sessions",
					"protocolProfileBehavior": {
						"disableBodyPruning": true
					},
					"request": {
						"method": "GET",
						"header": [
							{
								"key": "Authorization",
								"value": "{{auth_token}}",
								"type": "text"
							}
						],
						"body": {
							"mode": "raw",
							"raw": "{\n    \"createdByDisplayId\": \"ea4cd8f4-5492-4ae2-bb32-6e6ae76d2ae3\",\n    \"title\": \"Session 1\",\n    \"description\": \"Initial session of the day\"\n}",
							"options": {
								"raw": {
									"language": "json"
								}
							}
						},
						"url": {
							"raw": "{{servie_base_url}}/api/v1/poker_sessions",
							"host": [
								"{{servie_base_url}}"
							],
							"path": [
								"api",
								"v1",
								"poker_sessions"
							],
							"query": [
								{
									"key": "displayId",
									"value": "2bc82762-8fc8-4071-bf58-612b004b5e9e",
									"disabled": true
								}
							]
						}
					},
					"response": []
				},
				{
					"name": "Delete sessions",
					"request": {
						"method": "DELETE",
						"header": [
							{
								"key": "Authorization",
								"value": "{{auth_token}}",
								"type": "text"
							}
						],
						"body": {
							"mode": "raw",
							"raw": "{\n    \"createdByDisplayId\": \"ea4cd8f4-5492-4ae2-bb32-6e6ae76d2ae3\",\n    \"title\": \"Session 1\",\n    \"description\": \"Initial session of the day\"\n}",
							"options": {
								"raw": {
									"language": "json"
								}
							}
						},
						"url": {
							"raw": "{{servie_base_url}}/api/v1/poker_sessions/:displayId",
							"host": [
								"{{servie_base_url}}"
							],
							"path": [
								"api",
								"v1",
								"poker_sessions",
								":displayId"
							],
							"variable": [
								{
									"key": "displayId",
									"value": ""
								}
							]
						}
					},
					"response": []
				},
				{
					"name": "Get stories under session",
					"protocolProfileBehavior": {
						"disableBodyPruning": true
					},
					"request": {
						"method": "GET",
						"header": [
							{
								"key": "Authorization",
								"value": "{{auth_token}}",
								"type": "text"
							}
						],
						"body": {
							"mode": "raw",
							"raw": "{\n    \"createdByDisplayId\": \"ea4cd8f4-5492-4ae2-bb32-6e6ae76d2ae3\",\n    \"title\": \"Session 1\",\n    \"description\": \"Initial session of the day\"\n}",
							"options": {
								"raw": {
									"language": "json"
								}
							}
						},
						"url": {
							"raw": "{{servie_base_url}}/api/v1/poker_sessions/:displayId/stories",
							"host": [
								"{{servie_base_url}}"
							],
							"path": [
								"api",
								"v1",
								"poker_sessions",
								":displayId",
								"stories"
							],
							"variable": [
								{
									"key": "displayId",
									"value": "99941a29-c8a8-45e6-bcb6-691989f2b310"
								}
							]
						}
					},
					"response": []
				},
				{
					"name": "Add participant to session",
					"request": {
						"method": "POST",
						"header": [
							{
								"key": "Authorization",
								"value": "{{auth_token}}",
								"type": "text"
							}
						],
						"body": {
							"mode": "raw",
							"raw": "{\n    \"createdByDisplayId\": \"ea4cd8f4-5492-4ae2-bb32-6e6ae76d2ae3\",\n    \"title\": \"Session 1\",\n    \"description\": \"Initial session of the day\"\n}",
							"options": {
								"raw": {
									"language": "json"
								}
							}
						},
						"url": {
							"raw": "{{servie_base_url}}/api/v1/poker_sessions/:displayId/participant/:participantDisplayId",
							"host": [
								"{{servie_base_url}}"
							],
							"path": [
								"api",
								"v1",
								"poker_sessions",
								":displayId",
								"participant",
								":participantDisplayId"
							],
							"variable": [
								{
									"key": "displayId",
									"value": "99941a29-c8a8-45e6-bcb6-691989f2b310"
								},
								{
									"key": "participantDisplayId",
									"value": "67572a02-af9f-4000-86f7-69044d3325c1"
								}
							]
						}
					},
					"response": []
				}
			]
		},
		{
			"name": "Story",
			"item": [
				{
					"name": "Create story",
					"request": {
						"method": "POST",
						"header": [
							{
								"key": "Authorization",
								"value": "{{auth_token}}",
								"type": "text"
							}
						],
						"body": {
							"mode": "raw",
							"raw": "{\n    \"title\": \"Story 1\",\n    \"description\": \"Second Story\",\n    \"pokerSessionDisplayId\": \"99941a29-c8a8-45e6-bcb6-691989f2b310\"\n}",
							"options": {
								"raw": {
									"language": "json"
								}
							}
						},
						"url": {
							"raw": "{{servie_base_url}}/api/v1/poker_stories",
							"host": [
								"{{servie_base_url}}"
							],
							"path": [
								"api",
								"v1",
								"poker_stories"
							]
						}
					},
					"response": []
				},
				{
					"name": "Get stories",
					"request": {
						"method": "GET",
						"header": [
							{
								"key": "Authorization",
								"value": "{{auth_token}}",
								"type": "text"
							}
						],
						"url": {
							"raw": "{{servie_base_url}}/api/v1/poker_stories",
							"host": [
								"{{servie_base_url}}"
							],
							"path": [
								"api",
								"v1",
								"poker_stories"
							],
							"query": [
								{
									"key": "displayId",
									"value": "504c19e8-43da-41df-a588-da1f592f3d4d",
									"disabled": true
								}
							]
						}
					},
					"response": []
				},
				{
					"name": "Update story",
					"request": {
						"method": "PATCH",
						"header": [
							{
								"key": "Authorization",
								"value": "{{auth_token}}",
								"type": "text"
							}
						],
						"body": {
							"mode": "raw",
							"raw": "{\n    \"status\": \"VOTING\"\n}\n",
							"options": {
								"raw": {
									"language": "json"
								}
							}
						},
						"url": {
							"raw": "{{servie_base_url}}/api/v1/poker_stories/:displayId",
							"host": [
								"{{servie_base_url}}"
							],
							"path": [
								"api",
								"v1",
								"poker_stories",
								":displayId"
							],
							"variable": [
								{
									"key": "displayId",
									"value": "60072289-dba3-4a0d-bd19-608cac4e0e9b"
								}
							]
						}
					},
					"response": []
				},
				{
					"name": "Delete story",
					"request": {
						"method": "DELETE",
						"header": [
							{
								"key": "Authorization",
								"value": "{{auth_token}}",
								"type": "text"
							}
						],
						"url": {
							"raw": "{{servie_base_url}}/api/v1/poker_stories/:displayId",
							"host": [
								"{{servie_base_url}}"
							],
							"path": [
								"api",
								"v1",
								"poker_stories",
								":displayId"
							],
							"variable": [
								{
									"key": "displayId",
									"value": "f2461360-eebc-44d1-adf8-8a238be346d2"
								}
							]
						}
					},
					"response": []
				}
			]
		},
		{
			"name": "Vote",
			"item": [
				{
					"name": "Create vote",
					"request": {
						"method": "POST",
						"header": [
							{
								"key": "Authorization",
								"value": "{{auth_token}}",
								"type": "text"
							}
						],
						"body": {
							"mode": "raw",
							"raw": "{\n    \"votedByDisplayId\": \"67572a02-af9f-4000-86f7-69044d3325c1\",\n    \"votedStoryDisplayId\": \"60072289-dba3-4a0d-bd19-608cac4e0e9b\",\n    \"value\": \"12\"\n}",
							"options": {
								"raw": {
									"language": "json"
								}
							}
						},
						"url": {
							"raw": "{{servie_base_url}}/api/v1/poker_vote",
							"host": [
								"{{servie_base_url}}"
							],
							"path": [
								"api",
								"v1",
								"poker_vote"
							]
						}
					},
					"response": []
				},
				{
					"name": "Update vote",
					"request": {
						"method": "PATCH",
						"header": [
							{
								"key": "Authorization",
								"value": "{{auth_token}}",
								"type": "text"
							}
						],
						"body": {
							"mode": "raw",
							"raw": "{\n    \"votedByDisplayId\": \"67572a02-af9f-4000-86f7-69044d3325c1\",\n    \"votedStoryDisplayId\": \"60072289-dba3-4a0d-bd19-608cac4e0e9b\",\n    \"value\": \"12\"\n}",
							"options": {
								"raw": {
									"language": "json"
								}
							}
						},
						"url": {
							"raw": "{{servie_base_url}}/api/v1/poker_vote/:displayId",
							"host": [
								"{{servie_base_url}}"
							],
							"path": [
								"api",
								"v1",
								"poker_vote",
								":displayId"
							],
							"variable": [
								{
									"key": "displayId",
									"value": ""
								}
							]
						}
					},
					"response": []
				},
				{
					"name": "Get vote",
					"protocolProfileBehavior": {
						"disableBodyPruning": true
					},
					"request": {
						"method": "GET",
						"header": [
							{
								"key": "Authorization",
								"value": "{{auth_token}}",
								"type": "text"
							}
						],
						"body": {
							"mode": "raw",
							"raw": "{\n    \"votedByDisplayId\": \"1fcc8ae1-a4b6-4964-b577-915d780bcc80\",\n    \"votedStoryDisplayId\": \"4bc0eb9f-850f-4bad-b605-94405ca37998\",\n    \"value\": \"7\"\n}",
							"options": {
								"raw": {
									"language": "json"
								}
							}
						},
						"url": {
							"raw": "{{servie_base_url}}/api/v1/poker_vote?votedStoryDisplayId=60072289-dba3-4a0d-bd19-608cac4e0e9b",
							"host": [
								"{{servie_base_url}}"
							],
							"path": [
								"api",
								"v1",
								"poker_vote"
							],
							"query": [
								{
									"key": "displayId",
									"value": "d41ac3ec-528e-4407-9b90-495a4ccd34e6",
									"disabled": true
								},
								{
									"key": "votedStoryDisplayId",
									"value": "60072289-dba3-4a0d-bd19-608cac4e0e9b"
								}
							]
						}
					},
					"response": []
				}
			]
		}
	],
	"event": [
		{
			"listen": "prerequest",
			"script": {
				"type": "text/javascript",
				"exec": [
					""
				]
			}
		},
		{
			"listen": "test",
			"script": {
				"type": "text/javascript",
				"exec": [
					""
				]
			}
		}
	],
	"variable": [
		{
			"key": "servie_base_url",
			"value": "http://localhost:8001",
			"type": "string"
		},
		{
			"key": "auth_token",
			"value": "",
			"type": "string"
		}
	]
}